<?xml version="1.0" encoding="UTF-8"?>
<svg xmlns="http://www.w3.org/2000/svg" width="147" height="20">
    <linearGradient id="b" x2="0" y2="100%">
        <stop offset="0" stop-color="#bbb" stop-opacity=".1"/>
        <stop offset="1" stop-opacity=".1"/>
    </linearGradient>
    <mask id="anybadge_1">
        <rect width="147" height="20" rx="3" fill="#fff"/>
    </mask>
    <g mask="url(#anybadge_1)">
        <path fill="#555" d="M0 0h123v20H0z"/>
        <path fill="#4c1" d="M123 0h24v20H123z"/>
        <path fill="url(#b)" d="M0 0h147v20H0z"/>
    </g>
    <g fill="#fff" text-anchor="middle" font-family="DejaVu Sans,Verdana,Geneva,sans-serif" font-size="11">
        <text x="62.5" y="15" fill="#010101" fill-opacity=".3">Code obsolescence</text>
        <text x="61.5" y="14">Code obsolescence</text>
    </g>
    <g fill="#fff" text-anchor="middle" font-family="DejaVu Sans,Verdana,Geneva,sans-serif" font-size="11">
        <text x="136.0" y="15" fill="#010101" fill-opacity=".3">no</text>
        <text x="135.0" y="14">no</text>
    </g>
</svg>