<?xml version="1.0" encoding="UTF-8"?>
<svg xmlns="http://www.w3.org/2000/svg" width="254" height="20">
    <linearGradient id="b" x2="0" y2="100%">
        <stop offset="0" stop-color="#bbb" stop-opacity=".1"/>
        <stop offset="1" stop-opacity=".1"/>
    </linearGradient>
    <mask id="anybadge_1">
        <rect width="254" height="20" rx="3" fill="#fff"/>
    </mask>
    <g mask="url(#anybadge_1)">
        <path fill="#555" d="M0 0h218v20H0z"/>
        <path fill="#4c1" d="M218 0h36v20H218z"/>
        <path fill="url(#b)" d="M0 0h254v20H0z"/>
    </g>
    <g fill="#fff" text-anchor="middle" font-family="DejaVu Sans,Verdana,Geneva,sans-serif" font-size="11">
        <text x="110.0" y="15" fill="#010101" fill-opacity=".3">Pylint progressbar.py code quality</text>
        <text x="109.0" y="14">Pylint progressbar.py code quality</text>
    </g>
    <g fill="#fff" text-anchor="middle" font-family="DejaVu Sans,Verdana,Geneva,sans-serif" font-size="11">
        <text x="237.0" y="15" fill="#010101" fill-opacity=".3">10.0</text>
        <text x="236.0" y="14">10.0</text>
    </g>
</svg>