\relax 
\providecommand\hyper@newdestlabel[2]{}
\providecommand\babel@aux[2]{}
\@nameuse{bbl@beforestart}
\providecommand\HyperFirstAtBeginDocument{\AtBeginDocument}
\HyperFirstAtBeginDocument{\ifx\hyper@anchor\@undefined
\global\let\oldcontentsline\contentsline
\gdef\contentsline#1#2#3#4{\oldcontentsline{#1}{#2}{#3}}
\global\let\oldnewlabel\newlabel
\gdef\newlabel#1#2{\newlabelxx{#1}#2}
\gdef\newlabelxx#1#2#3#4#5#6{\oldnewlabel{#1}{{#2}{#3}}}
\AtEndDocument{\ifx\hyper@anchor\@undefined
\let\contentsline\oldcontentsline
\let\newlabel\oldnewlabel
\fi}
\fi}
\global\let\hyper@last\relax 
\gdef\HyperFirstAtBeginDocument#1{#1}
\providecommand*\HyPL@Entry[1]{}
\HyPL@Entry{0<</S/D>>}
\babel@aux{french}{}
\HyPL@Entry{2<</S/r>>}
\HyPL@Entry{4<</S/D>>}
\newlabel{index::doc}{{}{1}{}{section*.2}{}}
\@writefile{toc}{\contentsline {chapter}{\numberline {1}Slide Bar}{3}{chapter.1}\protected@file@percent }
\@writefile{lof}{\addvspace {10\p@ }}
\@writefile{lot}{\addvspace {10\p@ }}
\newlabel{index:slide-bar}{{1}{3}{Slide Bar}{chapter.1}{}}
\newlabel{index:module-progressbar}{{1}{3}{Slide Bar}{section*.3}{}}
\@writefile{toc}{\contentsline {section}{\numberline {1.1}The \sphinxstyleliteralintitle {\sphinxupquote {progressbar}} module}{3}{section.1.1}\protected@file@percent }
\newlabel{index:the-progressbar-module}{{1.1}{3}{The \sphinxstyleliteralintitle {\sphinxupquote {progressbar}} module}{section.1.1}{}}
\newlabel{index:formatting-text}{{1.1}{3}{The \sphinxstyleliteralintitle {\sphinxupquote {progressbar}} module}{section.1.1}{}}
\@writefile{toc}{\contentsline {section}{\numberline {1.2}FactorySlide}{4}{section.1.2}\protected@file@percent }
\newlabel{index:factoryslide}{{1.2}{4}{FactorySlide}{section.1.2}{}}
\newlabel{index:progressbar.FactorySlide}{{1.2}{4}{FactorySlide}{section*.4}{}}
\@writefile{toc}{\contentsline {subsection}{\numberline {1.2.1}Position cursor}{5}{subsection.1.2.1}\protected@file@percent }
\newlabel{index:position-cursor}{{1.2.1}{5}{Position cursor}{subsection.1.2.1}{}}
\@writefile{toc}{\contentsline {subsection}{\numberline {1.2.2}Range slide}{5}{subsection.1.2.2}\protected@file@percent }
\newlabel{index:range-slide}{{1.2.2}{5}{Range slide}{subsection.1.2.2}{}}
\@writefile{toc}{\contentsline {section}{\numberline {1.3}QBar}{7}{section.1.3}\protected@file@percent }
\newlabel{index:qbar}{{1.3}{7}{QBar}{section.1.3}{}}
\newlabel{index:progressbar.QBar}{{1.3}{7}{QBar}{section*.5}{}}
\newlabel{index:progressbar.QBar.get_maximum}{{1.3}{7}{QBar}{section*.6}{}}
\newlabel{index:progressbar.QBar.get_minimum}{{1.3}{8}{QBar}{section*.7}{}}
\newlabel{index:progressbar.QBar.set_maximum}{{1.3}{8}{QBar}{section*.8}{}}
\newlabel{index:progressbar.QBar.set_minimum}{{1.3}{8}{QBar}{section*.9}{}}
\@writefile{toc}{\contentsline {subsection}{\numberline {1.3.1}Position cursor}{8}{subsection.1.3.1}\protected@file@percent }
\newlabel{index:id1}{{1.3.1}{8}{Position cursor}{subsection.1.3.1}{}}
\@writefile{toc}{\contentsline {subsection}{\numberline {1.3.2}Range}{8}{subsection.1.3.2}\protected@file@percent }
\newlabel{index:range}{{1.3.2}{8}{Range}{subsection.1.3.2}{}}
\@writefile{toc}{\contentsline {chapter}{\numberline {2}Levels Bar}{11}{chapter.2}\protected@file@percent }
\@writefile{lof}{\addvspace {10\p@ }}
\@writefile{lot}{\addvspace {10\p@ }}
\newlabel{index:levels-bar}{{2}{11}{Levels Bar}{chapter.2}{}}
\newlabel{index:module-levelsbar}{{2}{11}{Levels Bar}{section*.10}{}}
\@writefile{toc}{\contentsline {section}{\numberline {2.1}The \sphinxstyleliteralintitle {\sphinxupquote {levelsbar}} module}{11}{section.2.1}\protected@file@percent }
\newlabel{index:the-levelsbar-module}{{2.1}{11}{The \sphinxstyleliteralintitle {\sphinxupquote {levelsbar}} module}{section.2.1}{}}
\@writefile{toc}{\contentsline {section}{\numberline {2.2}FactoryLevels}{12}{section.2.2}\protected@file@percent }
\newlabel{index:factorylevels}{{2.2}{12}{FactoryLevels}{section.2.2}{}}
\newlabel{index:levelsbar.FactoryLevels}{{2.2}{12}{FactoryLevels}{section*.11}{}}
\@writefile{toc}{\contentsline {subsection}{\numberline {2.2.1}Minimum Alert Level}{13}{subsection.2.2.1}\protected@file@percent }
\newlabel{index:minimum-alert-level}{{2.2.1}{13}{Minimum Alert Level}{subsection.2.2.1}{}}
\@writefile{toc}{\contentsline {subsection}{\numberline {2.2.2}Minimum Warning Level}{14}{subsection.2.2.2}\protected@file@percent }
\newlabel{index:minimum-warning-level}{{2.2.2}{14}{Minimum Warning Level}{subsection.2.2.2}{}}
\@writefile{toc}{\contentsline {subsection}{\numberline {2.2.3}Maximum Warning Level}{14}{subsection.2.2.3}\protected@file@percent }
\newlabel{index:maximum-warning-level}{{2.2.3}{14}{Maximum Warning Level}{subsection.2.2.3}{}}
\@writefile{toc}{\contentsline {subsection}{\numberline {2.2.4}Maximum Alert Level}{15}{subsection.2.2.4}\protected@file@percent }
\newlabel{index:maximum-alert-level}{{2.2.4}{15}{Maximum Alert Level}{subsection.2.2.4}{}}
\@writefile{toc}{\contentsline {subsection}{\numberline {2.2.5}Alerts Levels}{16}{subsection.2.2.5}\protected@file@percent }
\newlabel{index:alerts-levels}{{2.2.5}{16}{Alerts Levels}{subsection.2.2.5}{}}
\@writefile{toc}{\contentsline {subsection}{\numberline {2.2.6}Warnings Levels}{16}{subsection.2.2.6}\protected@file@percent }
\newlabel{index:warnings-levels}{{2.2.6}{16}{Warnings Levels}{subsection.2.2.6}{}}
\@writefile{toc}{\contentsline {subsection}{\numberline {2.2.7}Minimum Levels}{17}{subsection.2.2.7}\protected@file@percent }
\newlabel{index:minimum-levels}{{2.2.7}{17}{Minimum Levels}{subsection.2.2.7}{}}
\@writefile{toc}{\contentsline {subsection}{\numberline {2.2.8}Maximums Levels}{17}{subsection.2.2.8}\protected@file@percent }
\newlabel{index:maximums-levels}{{2.2.8}{17}{Maximums Levels}{subsection.2.2.8}{}}
\@writefile{toc}{\contentsline {subsection}{\numberline {2.2.9}All Levels}{18}{subsection.2.2.9}\protected@file@percent }
\newlabel{index:all-levels}{{2.2.9}{18}{All Levels}{subsection.2.2.9}{}}
\@writefile{toc}{\contentsline {section}{\numberline {2.3}QLevelsBar}{19}{section.2.3}\protected@file@percent }
\newlabel{index:qlevelsbar}{{2.3}{19}{QLevelsBar}{section.2.3}{}}
\newlabel{index:levelsbar.QLevelsBar}{{2.3}{19}{QLevelsBar}{section*.12}{}}
\@writefile{toc}{\contentsline {subsection}{\numberline {2.3.1}Position cursor}{20}{subsection.2.3.1}\protected@file@percent }
\newlabel{index:id2}{{2.3.1}{20}{Position cursor}{subsection.2.3.1}{}}
\@writefile{toc}{\contentsline {subsection}{\numberline {2.3.2}Range slide}{20}{subsection.2.3.2}\protected@file@percent }
\newlabel{index:id3}{{2.3.2}{20}{Range slide}{subsection.2.3.2}{}}
\@writefile{toc}{\contentsline {subsection}{\numberline {2.3.3}Minimum Alert Level}{21}{subsection.2.3.3}\protected@file@percent }
\newlabel{index:id4}{{2.3.3}{21}{Minimum Alert Level}{subsection.2.3.3}{}}
\@writefile{toc}{\contentsline {subsection}{\numberline {2.3.4}Minimum Warning Level}{21}{subsection.2.3.4}\protected@file@percent }
\newlabel{index:id5}{{2.3.4}{21}{Minimum Warning Level}{subsection.2.3.4}{}}
\@writefile{toc}{\contentsline {subsection}{\numberline {2.3.5}Maximum Warning Level}{22}{subsection.2.3.5}\protected@file@percent }
\newlabel{index:id6}{{2.3.5}{22}{Maximum Warning Level}{subsection.2.3.5}{}}
\@writefile{toc}{\contentsline {subsection}{\numberline {2.3.6}Maximum Alert Level}{23}{subsection.2.3.6}\protected@file@percent }
\newlabel{index:id7}{{2.3.6}{23}{Maximum Alert Level}{subsection.2.3.6}{}}
\@writefile{toc}{\contentsline {subsection}{\numberline {2.3.7}Alerts Levels}{23}{subsection.2.3.7}\protected@file@percent }
\newlabel{index:id8}{{2.3.7}{23}{Alerts Levels}{subsection.2.3.7}{}}
\@writefile{toc}{\contentsline {subsection}{\numberline {2.3.8}Warnings Levels}{24}{subsection.2.3.8}\protected@file@percent }
\newlabel{index:id9}{{2.3.8}{24}{Warnings Levels}{subsection.2.3.8}{}}
\@writefile{toc}{\contentsline {subsection}{\numberline {2.3.9}Minimum Levels}{24}{subsection.2.3.9}\protected@file@percent }
\newlabel{index:id10}{{2.3.9}{24}{Minimum Levels}{subsection.2.3.9}{}}
\@writefile{toc}{\contentsline {subsection}{\numberline {2.3.10}Maximums Levels}{25}{subsection.2.3.10}\protected@file@percent }
\newlabel{index:id11}{{2.3.10}{25}{Maximums Levels}{subsection.2.3.10}{}}
\@writefile{toc}{\contentsline {subsection}{\numberline {2.3.11}All Levels}{26}{subsection.2.3.11}\protected@file@percent }
\newlabel{index:id12}{{2.3.11}{26}{All Levels}{subsection.2.3.11}{}}
\@writefile{toc}{\contentsline {chapter}{\numberline {3}Scaled Bar}{27}{chapter.3}\protected@file@percent }
\@writefile{lof}{\addvspace {10\p@ }}
\@writefile{lot}{\addvspace {10\p@ }}
\newlabel{index:scaled-bar}{{3}{27}{Scaled Bar}{chapter.3}{}}
\newlabel{index:module-scaledbar}{{3}{27}{Scaled Bar}{section*.13}{}}
\@writefile{toc}{\contentsline {section}{\numberline {3.1}The \sphinxstyleliteralintitle {\sphinxupquote {scaledbar}} module}{27}{section.3.1}\protected@file@percent }
\newlabel{index:the-scaledbar-module}{{3.1}{27}{The \sphinxstyleliteralintitle {\sphinxupquote {scaledbar}} module}{section.3.1}{}}
\@writefile{toc}{\contentsline {section}{\numberline {3.2}FactoryScales}{29}{section.3.2}\protected@file@percent }
\newlabel{index:factoryscales}{{3.2}{29}{FactoryScales}{section.3.2}{}}
\newlabel{index:scaledbar.FactoryScales}{{3.2}{29}{FactoryScales}{section*.14}{}}
\@writefile{toc}{\contentsline {subsection}{\numberline {3.2.1}Linear scale}{30}{subsection.3.2.1}\protected@file@percent }
\newlabel{index:linear-scale}{{3.2.1}{30}{Linear scale}{subsection.3.2.1}{}}
\@writefile{toc}{\contentsline {subsection}{\numberline {3.2.2}Logarithm scale}{30}{subsection.3.2.2}\protected@file@percent }
\newlabel{index:logarithm-scale}{{3.2.2}{30}{Logarithm scale}{subsection.3.2.2}{}}
\@writefile{toc}{\contentsline {subsection}{\numberline {3.2.3}Scale function}{31}{subsection.3.2.3}\protected@file@percent }
\newlabel{index:scale-function}{{3.2.3}{31}{Scale function}{subsection.3.2.3}{}}
\@writefile{toc}{\contentsline {section}{\numberline {3.3}QScaleBar}{33}{section.3.3}\protected@file@percent }
\newlabel{index:qscalebar}{{3.3}{33}{QScaleBar}{section.3.3}{}}
\@writefile{toc}{\contentsline {chapter}{\numberline {4}Indices and tables}{35}{chapter.4}\protected@file@percent }
\@writefile{lof}{\addvspace {10\p@ }}
\@writefile{lot}{\addvspace {10\p@ }}
\newlabel{index:indices-and-tables}{{4}{35}{Indices and tables}{chapter.4}{}}
\@writefile{toc}{\contentsline {chapter}{Index des modules Python}{37}{section*.15}\protected@file@percent }
\@writefile{toc}{\contentsline {chapter}{Index}{39}{section*.16}\protected@file@percent }
\gdef\svg@ink@ver@settings{{\m@ne }{inkscape}{\m@ne }}
\gdef \@abspage@last{43}
