<?xml version="1.0" encoding="UTF-8"?>
<svg xmlns="http://www.w3.org/2000/svg" width="239" height="20">
    <linearGradient id="b" x2="0" y2="100%">
        <stop offset="0" stop-color="#bbb" stop-opacity=".1"/>
        <stop offset="1" stop-opacity=".1"/>
    </linearGradient>
    <mask id="anybadge_1">
        <rect width="239" height="20" rx="3" fill="#fff"/>
    </mask>
    <g mask="url(#anybadge_1)">
        <path fill="#555" d="M0 0h203v20H0z"/>
        <path fill="#4c1" d="M203 0h36v20H203z"/>
        <path fill="url(#b)" d="M0 0h239v20H0z"/>
    </g>
    <g fill="#fff" text-anchor="middle" font-family="DejaVu Sans,Verdana,Geneva,sans-serif" font-size="11">
        <text x="102.5" y="15" fill="#010101" fill-opacity=".3">Pylint scaledbar.py code quality</text>
        <text x="101.5" y="14">Pylint scaledbar.py code quality</text>
    </g>
    <g fill="#fff" text-anchor="middle" font-family="DejaVu Sans,Verdana,Geneva,sans-serif" font-size="11">
        <text x="222.0" y="15" fill="#010101" fill-opacity=".3">10.0</text>
        <text x="221.0" y="14">10.0</text>
    </g>
</svg>